{
  "name": "token-action-hud",
  "title": "Token Action HUD",
  "author": "^ and stick#0520",
  "description": "Creates a HUD showing a selected token's common actions.",
  "minimumCoreVersion": "0.7.0",
  "compatibleCoreVersion": "0.8.6",
  "scripts": ["./lib/tagify/tagify.min.js"],
  "esmodules": ["./scripts/init.js"],
  "styles": ["./styles/token-action-hud.css", "/styles/lib/tagify/tagify.css"],
  "systems": ["dnd5e", "dungeonworld", "pf2e", "wfrp4e", "sfrpg", "sw5e", "demonlord", "pf1", "lancer", "D35E", "swade", "starwarsffg", "tormenta20", "blades-in-the-dark", "symbaroum", "od6s", "alienrpg", "cthack"],
  "languages": [{
    "lang": "en",
    "name": "English",
    "path": "lang/en.json"
  }, {
    "lang": "ko",
    "name": "Korean",
    "path": "lang/ko.json"
  }, {
    "lang": "pt-BR",
    "name": "Português (Brasil)",
    "path": "lang/br.json"
  }, {
    "lang": "es",
    "name": "Spanish",
    "path": "lang/es.json"
  }, {
    "lang": "fr",
    "name": "French",
    "path": "lang/fr.json"
  }, {
    "lang": "pl",
    "name": "Polish",
    "path": "lang/pl.json"
  }, {
    "lang": "ja",
    "name": "日本語",
    "path": "lang/ja.json"
  }, {
    "lang": "cn",
    "name": "中文",
    "path": "lang/cn.json"
  },{
  "lang": "zh-TW",
  "name": "正體中文",
  "path": "./lang/zh-TW.json"
}, {
    "lang": "de",
    "name": "Deutsch",
    "path": "lang/de.json"
  }],
  "url": "https://github.com/espositos/fvtt-tokenactionhud",
  "manifest": "https://github.com/espositos/fvtt-tokenactionhud/raw/master/module.json",
  "version": "1.0.31",
  "download": "https://github.com/espositos/fvtt-tokenactionhud/releases/download/1.0.31/release_1.0.31.zip"
}